<?xml version="1.0" encoding="UTF-8" standalone="no"?>
<svg xmlns:rdf="http://www.w3.org/1999/02/22-rdf-syntax-ns#" xmlns="http://www.w3.org/2000/svg" version="1.1" xmlns:cc="http://creativecommons.org/ns#" xmlns:xlink="http://www.w3.org/1999/xlink" viewBox="0 0 23.501628 23.49861" xmlns:dc="http://purl.org/dc/elements/1.1/">
<metadata>
<rdf:RDF>
<cc:Work rdf:about="">
<dc:format>image/svg+xml</dc:format>
<dc:type rdf:resource="http://purl.org/dc/dcmitype/StillImage"/>
</cc:Work>
</rdf:RDF>
</metadata>
<defs>
<linearGradient id="g" y2="204.916" xlink:href="#a" gradientUnits="userSpaceOnUse" x2="599.2378" gradientTransform="matrix(.1463004 .278073 -.278073 .1463004 868.8846 -102.259)" y1="195.5188" x1="593.1874"/>
<linearGradient id="l" y2="350.1636" gradientUnits="userSpaceOnUse" x2="130.3522" y1="343.258" x1="121.1177">
<stop stop-color="#fffdf8" offset="0"/>
<stop stop-color="#cdccc7" offset="1"/>
</linearGradient>
<linearGradient id="k" y2="46.339" xlink:href="#c" gradientUnits="userSpaceOnUse" x2="414.2602" gradientTransform="matrix(1.001797 0 0 .906445 -290.1978 295.2598)" y1="46.33899" x1="404.6787"/>
<linearGradient id="a">
<stop stop-color="#f3ff49" offset="0"/>
<stop stop-color="#ffa01e" offset="1"/>
</linearGradient>
<linearGradient id="e" y2="216.4033" xlink:href="#a" gradientUnits="userSpaceOnUse" x2="612.2578" y1="215.402" x1="609.5726"/>
<linearGradient id="f" y2="221.2004" xlink:href="#b" gradientUnits="userSpaceOnUse" x2="602.0698" gradientTransform="matrix(.1463004 .278073 -.278073 .1463004 868.8846 -102.259)" y1="220.3636" x1="606.9615"/>
<linearGradient id="h" y2="220.8004" xlink:href="#b" gradientUnits="userSpaceOnUse" x2="582.4935" gradientTransform="matrix(.1463004 .278073 -.278073 .1463004 868.8846 -102.259)" y1="222.3478" x1="587.9551"/>
<linearGradient id="i" y2="188.5494" xlink:href="#a" gradientUnits="userSpaceOnUse" x2="597.3068" gradientTransform="matrix(.1463004 .278073 -.278073 .1463004 868.8846 -102.259)" y1="186.6364" x1="593.3162"/>
<linearGradient id="d" y2="198.5761" gradientUnits="userSpaceOnUse" x2="592.8656" y1="198.5761" x1="591.3853">
<stop stop-color="#5a5a5a" offset="0"/>
<stop offset="1"/>
</linearGradient>
<linearGradient id="c">
<stop stop-color="#fff" offset="0"/>
<stop stop-color="#98b6d3" offset="1"/>
</linearGradient>
<linearGradient id="j" y2="216.7914" xlink:href="#c" gradientUnits="userSpaceOnUse" x2="594.861" gradientTransform="matrix(.1463004 .278073 -.278073 .1463004 868.556 -101.4348)" y1="213.1902" x1="594.8112"/>
<linearGradient id="b">
<stop stop-color="#376796" offset="0"/>
<stop stop-color="#b0dde2" offset="1"/>
</linearGradient>
</defs>
<g transform="translate(-883.99915 -82.000903)">
<g stroke-linejoin="round" stroke="#000" stroke-linecap="round" transform="matrix(1.500067,0,0,1.495011,711.1557,-419.4617)" fill-rule="evenodd">
<rect style="color:#000000" height="11.99987" width="14.99917" y="338.8083" x="115.5577" stroke-width=".6677634" fill="url(#l)"/>
<rect style="color:#000000" height="3.011261" width="14.99819" y="335.7579" x="115.5588" stroke-width=".6677633" fill="url(#k)"/>
</g>
<path style="color:#000000" d="m893.9086 90.94437 4.5012 8.55533-1.1097 0.5838-4.5011-8.5553c0.3042-0.50869 0.6924-0.61561 1.1096-0.58383z" fill-rule="evenodd" stroke="#000" stroke-width=".4646012" fill="url(#j)"/>
<path style="color:#000000" d="m901.723 91.08202 0.7235-0.89772 2.2873-0.75096 0.5993 1.13904-2.0037 1.47432-0.9993 0.03418-0.6071-0.99886z" fill-rule="evenodd" stroke="#000" stroke-width=".6498151" fill="url(#i)"/>
<path style="color:#000000" d="m887.8568 93.9611-1.8151 1.91429 2.1778-0.95886-0.3626-0.95534z" fill-rule="evenodd" stroke="#000" stroke-miterlimit="30" stroke-width=".4646012" fill="#b6cbe0"/>
<path stroke-linejoin="round" style="color:#000000" d="m888.2194 94.91644-0.3626-0.95534 0.4674-0.91572 11.4672-2.66423-1.0473 2.06784-10.5247 2.46745z" fill-rule="evenodd" stroke="#000" stroke-width=".6498151" fill="url(#h)"/>
<path style="color:#000000" d="m901.6822 90.84956c-0.56-0.50304-1.2496-0.73694-1.8895-0.47041l-1.0508 2.07288c-0.8665 0.76775-0.3176 1.53186 0.7086 1.34691l2.3035 0.30813c0.5821-0.37639 0.7799-1.07718 0.6826-1.82369 0.005-0.63292-0.2524-1.08461-0.7543-1.43381z" fill-rule="evenodd" stroke="#000" stroke-width=".6498151" fill="url(#g)"/>
<path stroke-linejoin="round" style="color:#000000" d="m891.4619 101.075 0.5819 0.8399 1.0194 0.1335 8.6908-7.94133-2.2974-0.30812-7.9947 7.27605z" fill-rule="evenodd" stroke="#000" stroke-width=".6498151" fill="url(#f)"/>
<ellipse style="color:#000000" fill-rule="evenodd" rx="1.866584" transform="matrix(.1463004 .278073 -.278073 .1463004 868.556 -101.4348)" stroke="#000" ry="4.248087" cy="215.7293" cx="610.7591" stroke-width="1.4786291" fill="#f7df3a"/>
<ellipse style="color:#000000" fill-rule="evenodd" rx="1.866584" transform="matrix(.1463004 .278073 -.278073 .1463004 868.8196 -100.9337)" stroke="#000" ry="4.248087" cy="215.7293" cx="610.7591" stroke-width="1.4786291" fill="url(#e)"/>
<circle style="color:#000000" fill-rule="evenodd" transform="matrix(.3341836 .6351824 -.6351824 .3341836 828.7399 -351.0096)" cy="198.5761" cx="592.1254" r=".740197" fill="url(#d)"/>
<path style="color:#000000" d="m888.962 93.58236 3.9167-0.89518" stroke="#fff" stroke-linecap="round" stroke-width=".3249075" fill="none"/>
<path style="color:#000000" d="m892.0438 101.9149-2.6056 0.4117 2.0237-1.2516 0.5819 0.8399z" fill-rule="evenodd" stroke="#000" stroke-miterlimit="30" stroke-width=".4646012" fill="#b6cbe0"/>
<path stroke-linejoin="round" style="color:#000000" d="m902.8751 90.70598 1.5143-0.48816" fill-rule="evenodd" stroke="#fff" stroke-linecap="round" stroke-miterlimit="30" stroke-width=".3249075" fill="#f7df3a"/>
<use xlink:href="#path6927" transform="matrix(.7545079 .3008297 -.3008297 .7545079 580.9682 -245.5823)" height="540" width="1250" y="0" x="0"/>
</g>
</svg>
