<?xml version="1.0" encoding="UTF-8" standalone="no"?>
<svg xmlns:rdf="http://www.w3.org/1999/02/22-rdf-syntax-ns#" xmlns="http://www.w3.org/2000/svg" version="1.1" xmlns:cc="http://creativecommons.org/ns#" viewBox="0 0 15.985365 12.191597" xmlns:dc="http://purl.org/dc/elements/1.1/">
<metadata>
<rdf:RDF>
<cc:Work rdf:about="">
<dc:format>image/svg+xml</dc:format>
<dc:type rdf:resource="http://purl.org/dc/dcmitype/StillImage"/>
</cc:Work>
</rdf:RDF>
</metadata>
<g transform="translate(-13.644152,-164.83071)" fill-rule="evenodd">
<g transform="matrix(1.121863 0 0 .8467469 .942669 37.58741)">
<rect stroke-width=".2102582" rx="3.259387" transform="matrix(.8657253 -.5005195 .214431 .9767391 0 0)" ry="2.792642" width="8.207668" stroke="#ccc" y="145.0049" x="-23.34781" height="11.80559" fill="#fff"/>
<rect stroke-width=".7941308pt" rx="2.588382" transform="matrix(.8657253 -.5005195 .214431 .9767391 0 0)" ry="2.217725" width="6.517971" y="146.288" x="-22.55011" height="9.375189" fill="#bf0000"/>
<rect rx="3.851753" ry="3.032427" height="12.70694" width="7.830238" stroke="#ccc" y="150.4802" x="14.50112" stroke-width=".2130624" fill="#fff"/>
<rect rx="3.058795" ry="2.408143" height="10.09097" width="6.218232" y="151.8613" x="15.26213" stroke-width=".7941308pt" fill="#ff7f00"/>
<rect stroke-width=".2164044" rx="3.542479" transform="matrix(.9158505 .4015194 -.1642153 .9864245 0 0)" ry="2.946012" width="8.253802" stroke="#ccc" y="134.1788" x="44.10332" height="12.43601" fill="#fff"/>
<rect stroke-width=".7941308pt" rx="2.813192" transform="matrix(.9158505 .4015194 -.1642153 .9864245 0 0)" ry="2.339518" width="6.554592" y="135.5302" x="44.90545" height="9.875807" fill="#f3e533"/>
</g>
<path d="m5.04091 204.05h7v-2l3 2.5-3 2.5v-2h-7v-1z" transform="translate(14.58777 -33.04874)"/>
</g>
</svg>
