<?xml version="1.0" encoding="UTF-8" standalone="no"?>
<svg xmlns:rdf="http://www.w3.org/1999/02/22-rdf-syntax-ns#" xmlns="http://www.w3.org/2000/svg" version="1.1" xmlns:cc="http://creativecommons.org/ns#" xmlns:xlink="http://www.w3.org/1999/xlink" viewBox="0 0 16 16" xmlns:dc="http://purl.org/dc/elements/1.1/">
<metadata>
<rdf:RDF>
<cc:Work rdf:about="">
<dc:format>image/svg+xml</dc:format>
<dc:type rdf:resource="http://purl.org/dc/dcmitype/StillImage"/>
</cc:Work>
</rdf:RDF>
</metadata>
<g transform="translate(45,-175)">
<rect height="16" width="16" y="175" x="-45" fill="none"/>
<g stroke-width=".2773579" stroke="#ffffff" transform="translate(-416.8263,39.0012)">
<circle id="a" style="color:#000000" stroke-width=".2773579" transform="matrix(1.20571,0,0,1.20571,-78.25832,-27.17581)" stroke="#fff" cy="137.9821" cx="375.0941" r="1.111868"/>
<use xlink:href="#a" transform="translate(4.825002e-8,2.41142)" height="1250" width="1250" y="0" x="0"/>
<use xlink:href="#a" transform="translate(.0067742 5.089253)" height="1250" width="1250" y="0" x="0"/>
<use xlink:href="#a" transform="translate(.0027824 7.946541)" height="1250" width="1250" y="0" x="0"/>
<use xlink:href="#a" transform="translate(2.959973 -.63416)" height="1250" width="1250" y="0" x="0"/>
<use xlink:href="#a" transform="translate(3.006247 .88896)" height="1250" width="1250" y="0" x="0"/>
<use xlink:href="#a" transform="translate(3.034311,2.716243)" height="1250" width="1250" y="0" x="0"/>
<use xlink:href="#a" transform="translate(2.998324,5.976212)" height="1250" width="1250" y="0" x="0"/>
<use xlink:href="#a" transform="translate(5.922205 -.70933)" height="1250" width="1250" y="0" x="0"/>
<use xlink:href="#a" transform="translate(5.986644 .3787152)" height="1250" width="1250" y="0" x="0"/>
<use xlink:href="#a" transform="translate(6.028303,2.049693)" height="1250" width="1250" y="0" x="0"/>
<use xlink:href="#a" transform="translate(5.985226,4.82628)" height="1250" width="1250" y="0" x="0"/>
<use xlink:href="#a" transform="translate(8.86036 -.67653)" height="1250" width="1250" y="0" x="0"/>
<use xlink:href="#a" transform="translate(8.908855 .84335)" height="1250" width="1250" y="0" x="0"/>
<use xlink:href="#a" transform="translate(8.937926,2.560875)" height="1250" width="1250" y="0" x="0"/>
<use xlink:href="#a" transform="translate(8.901517,5.920781)" height="1250" width="1250" y="0" x="0"/>
<use xlink:href="#a" transform="translate(11.79723 -.00985)" height="1250" width="1250" y="0" x="0"/>
<use xlink:href="#a" transform="translate(11.80716,2.53059)" height="1250" width="1250" y="0" x="0"/>
<use xlink:href="#a" transform="translate(11.81518,5.183143)" height="1250" width="1250" y="0" x="0"/>
<use xlink:href="#a" transform="translate(11.80214,7.912301)" height="1250" width="1250" y="0" x="0"/>
<use xlink:href="#a" transform="translate(.0027824 10.71149)" height="1250" width="1250" y="0" x="0"/>
<use xlink:href="#a" transform="translate(2.998324,9.724665)" height="1250" width="1250" y="0" x="0"/>
<use xlink:href="#a" transform="translate(5.985226,9.503606)" height="1250" width="1250" y="0" x="0"/>
<use xlink:href="#a" transform="translate(8.901517,9.887791)" height="1250" width="1250" y="0" x="0"/>
<use xlink:href="#a" transform="translate(11.80214,10.67725)" height="1250" width="1250" y="0" x="0"/>
</g>
</g>
</svg>
