<?xml version="1.0" encoding="UTF-8" standalone="no"?>
<svg xmlns:rdf="http://www.w3.org/1999/02/22-rdf-syntax-ns#" xmlns="http://www.w3.org/2000/svg" version="1.1" xmlns:cc="http://creativecommons.org/ns#" xmlns:xlink="http://www.w3.org/1999/xlink" viewBox="0 0 17.074495 17" xmlns:dc="http://purl.org/dc/elements/1.1/">
<metadata>
<rdf:RDF>
<cc:Work rdf:about="">
<dc:format>image/svg+xml</dc:format>
<dc:type rdf:resource="http://purl.org/dc/dcmitype/StillImage"/>
</cc:Work>
</rdf:RDF>
</metadata>
<defs>
<linearGradient id="a" y2="350.1636" gradientUnits="userSpaceOnUse" x2="130.3522" gradientTransform="matrix(1 0 0 .996869 165.9423 -181.2098)" y1="343.258" x1="121.1177">
<stop stop-color="#fffdf8" offset="0"/>
<stop stop-color="#cdccc7" offset="1"/>
</linearGradient>
</defs>
<g transform="translate(-319.07532,-107.694)">
<rect style="color:#000000" fill-rule="evenodd" height="16" width="16" stroke="#3465a4" stroke-linecap="square" stroke-dasharray="1.0000001, 2.0000002" y="108.194" x="319.6498" stroke-width="1.0000001" fill="url(#a)"/>
<path stroke-linejoin="round" style="color:#000000" d="m341.3078 163.0209a3.963478 4.113043 0 0 1 -3.9635 4.113v-4.113z" fill-rule="evenodd" fill-opacity=".7019608" transform="matrix(2.894146,0,0,2.833322,-656.743,-353.6308)" stroke="#000" stroke-miterlimit="0" stroke-width=".3492142" fill="#99b7d6"/>
<ellipse stroke-linejoin="round" style="color:#000000" rx="3.963478" transform="matrix(1.101789,0,0,1.080243,-44.03243,-59.90819)" stroke="#c80000" ry="4.113043" cy="163.0209" cx="337.3443" stroke-miterlimit="0" stroke-dasharray="0.9166215, 0.9166215" stroke-width=".9166215" fill="none"/>
</g>
</svg>
